…
 \scriptsize


```r
studenti[1, ]
## # A tibble: 1 x 14
##      ID Prezime  Ime   br.ind god.u~1 kol.1 kol.2 kol.1.1 kol.2.2 Januar Februar
##   <dbl> <chr>    <chr>  <dbl>   <dbl> <dbl> <dbl>   <dbl>   <dbl>  <dbl>   <dbl>
## 1     1 Antonij~ Boris   1035      16    NA    NA      NA      NA     NA      40
## # ... with 3 more variables: Jun <dbl>, Ocena <dbl>, Praksa <dbl>, and
## #   abbreviated variable name 1: god.upisa

studenti[, 2]
## # A tibble: 35 x 1
##    Prezime        
##    <chr>          
##  1 Antonijev      
##  2 Arvaji         
##  3 Babic          
##  4 Beljin         
##  5 Božic Krajišnik
##  6 Brkic          
##  7 Vasovic        
##  8 Vucic          
##  9 Garibovic      
## 10 Gordic         
## # ... with 25 more rows
…
Selekcija podataka - elementa je moguća i putem naziva kolona i/ili redova ako su dostupni:



 \scriptsize


```r
names(studenti) 
##  [1] "ID"        "Prezime"   "Ime"       "br.ind"    "god.upisa" "kol.1"    
##  [7] "kol.2"     "kol.1.1"   "kol.2.2"   "Januar"    "Februar"   "Jun"      
## [13] "Ocena"     "Praksa"
studenti[, "Prezime"]
## # A tibble: 35 x 1
##    Prezime        
##    <chr>          
##  1 Antonijev      
##  2 Arvaji         
##  3 Babic          
##  4 Beljin         
##  5 Božic Krajišnik
##  6 Brkic          
##  7 Vasovic        
##  8 Vucic          
##  9 Garibovic      
## 10 Gordic         
## # ... with 25 more rows
…
 \footnotesize


Ukoliko želimo selektovati prvi član liste primenom operatora `[]`, za rezultat ćemo takođe dobiti listu!


 \scriptsize


```r
praksa_list[1]
## $polozili
## # A tibble: 31 x 14
##       ID Prezime Ime   br.ind god.u~1 kol.1 kol.2 kol.1.1 kol.2.2 Januar Februar
##    <dbl> <chr>   <chr>  <dbl>   <dbl> <dbl> <dbl>   <dbl>   <dbl>  <dbl>   <dbl>
##  1     1 Antoni~ Boris   1035      16    NA    NA      NA      NA     NA      40
##  2     3 Babic   Stef~   1051      16     0    NA      NA      NA     NA      NA
##  3     4 Beljin  Miloš   1019      17     0    NA      NA      NA     NA      10
##  4     5 Božic ~ Stef~   1041      16     0    NA      NA      NA     NA     100
##  5     7 Vasovic Alek~   1031      17    40    85     100      NA     NA      NA
##  6     8 Vucic   Boban   1018      17    NA    NA      NA      NA     NA       8
##  7    10 Gordic  Nata~   1015      17     0    NA      NA      NA     NA      82
##  8    11 Grujov~ Kata~   1042      15    NA    NA      NA      NA     NA      NA
##  9    12 Dimitr~ Jovan   1040      17    45    95      10      NA     NA      80
## 10    13 Jovicic Andr~   1012      17    30    NA      NA      NA     NA      92
## # ... with 21 more rows, 3 more variables: Jun <dbl>, Ocena <dbl>,
## #   Praksa <dbl>, and abbreviated variable name 1: god.upisa
…
<img src="C:/R_projects/Analiza_podataka_u_R_u/Vezbe/Figures/selektovanje_liste.jpg" width="469" style="display: block; margin: auto;" />

 \footnotesize



Međutim, ukoliko želimo selektovati prvi član liste primenom operatora `[[]]`, za rezultat žemo takođe dobiti `data.frame`!


 \scriptsize


```r
praksa_list[[1]]
## # A tibble: 31 x 14
##       ID Prezime Ime   br.ind god.u~1 kol.1 kol.2 kol.1.1 kol.2.2 Januar Februar
##    <dbl> <chr>   <chr>  <dbl>   <dbl> <dbl> <dbl>   <dbl>   <dbl>  <dbl>   <dbl>
##  1     1 Antoni~ Boris   1035      16    NA    NA      NA      NA     NA      40
##  2     3 Babic   Stef~   1051      16     0    NA      NA      NA     NA      NA
##  3     4 Beljin  Miloš   1019      17     0    NA      NA      NA     NA      10
##  4     5 Božic ~ Stef~   1041      16     0    NA      NA      NA     NA     100
##  5     7 Vasovic Alek~   1031      17    40    85     100      NA     NA      NA
##  6     8 Vucic   Boban   1018      17    NA    NA      NA      NA     NA       8
##  7    10 Gordic  Nata~   1015      17     0    NA      NA      NA     NA      82
##  8    11 Grujov~ Kata~   1042      15    NA    NA      NA      NA     NA      NA
##  9    12 Dimitr~ Jovan   1040      17    45    95      10      NA     NA      80
## 10    13 Jovicic Andr~   1012      17    30    NA      NA      NA     NA      92
## # ... with 21 more rows, 3 more variables: Jun <dbl>, Ocena <dbl>,
## #   Praksa <dbl>, and abbreviated variable name 1: god.upisa
…
 \footnotesize



Element liste moguće je selektovati i naznačavanjem imena liste u okviru operatora `[]`:



 \scriptsize


```r
praksa_list["polozili"]
## $polozili
## # A tibble: 31 x 14
##       ID Prezime Ime   br.ind god.u~1 kol.1 kol.2 kol.1.1 kol.2.2 Januar Februar
##    <dbl> <chr>   <chr>  <dbl>   <dbl> <dbl> <dbl>   <dbl>   <dbl>  <dbl>   <dbl>
##  1     1 Antoni~ Boris   1035      16    NA    NA      NA      NA     NA      40
##  2     3 Babic   Stef~   1051      16     0    NA      NA      NA     NA      NA
##  3     4 Beljin  Miloš   1019      17     0    NA      NA      NA     NA      10
##  4     5 Božic ~ Stef~   1041      16     0    NA      NA      NA     NA     100
##  5     7 Vasovic Alek~   1031      17    40    85     100      NA     NA      NA
##  6     8 Vucic   Boban   1018      17    NA    NA      NA      NA     NA       8
##  7    10 Gordic  Nata~   1015      17     0    NA      NA      NA     NA      82
##  8    11 Grujov~ Kata~   1042      15    NA    NA      NA      NA     NA      NA
##  9    12 Dimitr~ Jovan   1040      17    45    95      10      NA     NA      80
## 10    13 Jovicic Andr~   1012      17    30    NA      NA      NA     NA      92
## # ... with 21 more rows, 3 more variables: Jun <dbl>, Ocena <dbl>,
## #   Praksa <dbl>, and abbreviated variable name 1: god.upisa

praksa_list[["polozili"]]
## # A tibble: 31 x 14
##       ID Prezime Ime   br.ind god.u~1 kol.1 kol.2 kol.1.1 kol.2.2 Januar Februar
##    <dbl> <chr>   <chr>  <dbl>   <dbl> <dbl> <dbl>   <dbl>   <dbl>  <dbl>   <dbl>
##  1     1 Antoni~ Boris   1035      16    NA    NA      NA      NA     NA      40
##  2     3 Babic   Stef~   1051      16     0    NA      NA      NA     NA      NA
##  3     4 Beljin  Miloš   1019      17     0    NA      NA      NA     NA      10
##  4     5 Božic ~ Stef~   1041      16     0    NA      NA      NA     NA     100
##  5     7 Vasovic Alek~   1031      17    40    85     100      NA     NA      NA
##  6     8 Vucic   Boban   1018      17    NA    NA      NA      NA     NA       8
##  7    10 Gordic  Nata~   1015      17     0    NA      NA      NA     NA      82
##  8    11 Grujov~ Kata~   1042      15    NA    NA      NA      NA     NA      NA
##  9    12 Dimitr~ Jovan   1040      17    45    95      10      NA     NA      80
## 10    13 Jovicic Andr~   1012      17    30    NA      NA      NA     NA      92
## # ... with 21 more rows, 3 more variables: Jun <dbl>, Ocena <dbl>,
## #   Praksa <dbl>, and abbreviated variable name 1: god.upisa


praksa_list[1]
## $polozili
## # A tibble: 31 x 14
##       ID Prezime Ime   br.ind god.u~1 kol.1 kol.2 kol.1.1 kol.2.2 Januar Februar
##    <dbl> <chr>   <chr>  <dbl>   <dbl> <dbl> <dbl>   <dbl>   <dbl>  <dbl>   <dbl>
##  1     1 Antoni~ Boris   1035      16    NA    NA      NA      NA     NA      40
##  2     3 Babic   Stef~   1051      16     0    NA      NA      NA     NA      NA
##  3     4 Beljin  Miloš   1019      17     0    NA      NA      NA     NA      10
##  4     5 Božic ~ Stef~   1041      16     0    NA      NA      NA     NA     100
##  5     7 Vasovic Alek~   1031      17    40    85     100      NA     NA      NA
##  6     8 Vucic   Boban   1018      17    NA    NA      NA      NA     NA       8
##  7    10 Gordic  Nata~   1015      17     0    NA      NA      NA     NA      82
##  8    11 Grujov~ Kata~   1042      15    NA    NA      NA      NA     NA      NA
##  9    12 Dimitr~ Jovan   1040      17    45    95      10      NA     NA      80
## 10    13 Jovicic Andr~   1012      17    30    NA      NA      NA     NA      92
## # ... with 21 more rows, 3 more variables: Jun <dbl>, Ocena <dbl>,
## #   Praksa <dbl>, and abbreviated variable name 1: god.upisa
…
 \footnotesize


#### Modifikovanje redosleda podataka

Ukoliko želimo da poređamo vrste u `data.frame`-u prema vrednostima u nekoj koloni, to možemo učiniti na sledeći način:


 \scriptsize


```r
studenti[order(studenti$Ocena, studenti$Praksa),] 
## # A tibble: 35 x 14
##       ID Prezime Ime   br.ind god.u~1 kol.1 kol.2 kol.1.1 kol.2.2 Januar Februar
##    <dbl> <chr>   <chr>  <dbl> <fct>   <dbl> <dbl>   <dbl>   <dbl>  <dbl>   <dbl>
##  1    31 Stojan~ Marta   1048 2016        0    NA      NA      NA     20      51
##  2     8 Vucic   Boban   1018 2017       NA    NA      NA      NA     NA       8
##  3    21 Milosa~ Nema~   1003 2017       30    NA      NA      NA     30     100
##  4    22 Mladen~ Niko~   1053 2016        0    NA      NA      NA     NA      NA
##  5    28 Srejic  Alek~   1037 2016       NA    NA      NA      NA     NA      NA
##  6    33 Tomic   Filip   1029 2017        0    NA      NA      NA     65      NA
##  7    34 Cvetko~ Boži~   1006 2017        0    NA      NA      NA     NA      40
##  8     9 Garibo~ Tarik   1027 2017        0    NA      NA      NA     NA      NA
##  9     3 Babic   Stef~   1051 2016        0    NA      NA      NA     NA      NA
## 10     5 Božic ~ Stef~   1041 2016        0    NA      NA      NA     NA     100
## # ... with 25 more rows, 3 more variables: Jun <dbl>, Ocena <dbl>,
## #   Praksa <dbl>, and abbreviated variable name 1: god.upisa
```
…
